…
## Rows: 54 Columns: 28
## ── Column specification ────────────────────────────────────────────────────────
## Delimiter: ","
## chr  (2): GeoFips, GeoName
## dbl (26): 2018:Q1, 2018:Q2, 2018:Q3, 2018:Q4, 2019:Q1, 2019:Q2, 2019:Q3, 201...
## 
## ℹ Use `spec()` to retrieve the full column specification for this data.
## ℹ Specify the column types or set `show_col_types = FALSE` to quiet this message.

state_gdp$year <- as.numeric(state_gdp$year)

state_gdp

## # A tibble: 378 × 3
##    state    year     gdp
##    <chr>   <dbl>   <dbl>
##  1 Alabama  2018 220360.
##  2 Alabama  2019 224229.
##  3 Alabama  2020 208569.
##  4 Alabama  2021 233098.
##  5 Alabama  2022 236710.
##  6 Alabama  2023 243977 
##  7 Alabama  2024 250740.
##  8 Alaska   2018  52478.
##  9 Alaska   2019  51864.
## 10 Alaska   2020  48242.
## # ℹ 368 more rows
…
## Warning: There was 1 warning in `mutate()`.
## ℹ In argument: `across(-state, ~as.numeric(gsub("\\(NA\\)", "", .)))`.
## Caused by warning:
## ! NAs introduced by coercion

personal_dis_income

## # A tibble: 800 × 4
##    GeoFips state    year disposable_income
##      <dbl> <chr>   <dbl>             <dbl>
##  1    1000 Alabama  2008             30060
##  2    1000 Alabama  2009             30104
##  3    1000 Alabama  2010             31091
##  4    1000 Alabama  2011             31760
##  5    1000 Alabama  2012             32500
##  6    1000 Alabama  2013             32399
##  7    1000 Alabama  2014             33351
##  8    1000 Alabama  2015             34538
##  9    1000 Alabama  2016             34919
## 10    1000 Alabama  2017             36173
## # ℹ 790 more rows
…
# Merge data.
d <- d_pollav_state |>
  left_join(d_state_popvote, by = c("year", "state")) |>
  left_join(d_popvote |> filter(party == "democrat"), by = "year") |>
  left_join(d_turnout, by = c("year", "state")) |>
  left_join(personal_dis_income, by = c("state", "year")) |>
  left_join(state_gdp, by = c("state", "year")) |>
  filter(year >= 1980) |>
  ungroup()

d

## # A tibble: 557 × 48
##     year state               latest_pollav_REP latest_pollav_DEM mean_pollav_REP
##    <dbl> <chr>                           <dbl>             <dbl>           <dbl>
##  1  2016 Alabama                         56.3               35.1           66.3 
##  2  2016 Alaska                          45.2               39.1           46.8 
##  3  2016 Arizona                         45.6               42.9           41.4 
##  4  2016 Arkansas                        53.0               33.5           49.5 
##  5  2016 California                      32.8               54.9           31.7 
##  6  2016 Colorado                        40.8               43.6           41.4 
##  7  2016 Connecticut                     36.5               51.1           38.5 
##  8  2016 Delaware                        36.1               50.1           33.9 
##  9  2016 District of Columb…              6.50              85.6            5.00
## 10  2016 Florida                         45.5               46.4           42.6 
## # ℹ 547 more rows
## # ℹ 43 more variables: mean_pollav_DEM <dbl>, D_pv <dbl>, R_pv <dbl>,
## #   D_pv2p <dbl>, R_pv2p <dbl>, votes_D <dbl>, votes_R <dbl>,
## #   total_votes <dbl>, two_party_votes <dbl>, D_pv_lag1 <dbl>, R_pv_lag1 <dbl>,
## #   D_pv2p_lag1 <dbl>, R_pv2p_lag1 <dbl>, D_pv_lag2 <dbl>, R_pv_lag2 <dbl>,
## #   D_pv2p_lag2 <dbl>, R_pv2p_lag2 <dbl>, party <chr>, winner <lgl>,
## #   candidate <chr>, pv <dbl>, pv2p <dbl>, incumbent <lgl>, …

# Sequester states for which we have polling data for 2024.
states.2024 <- unique(d$state[d$year == 2024])
states.2024 <- states.2024[-which(states.2024 == "Nebraska Cd 2")]
d <- d |>
  filter(state %in% states.2024)

d

## # A tibble: 233 × 48
##     year state      latest_pollav_REP latest_pollav_DEM mean_pollav_REP
##    <dbl> <chr>                  <dbl>             <dbl>           <dbl>
##  1  2016 Arizona                 45.6              42.9            41.4
##  2  2016 California              32.8              54.9            31.7
##  3  2016 Florida                 45.5              46.4            42.6
##  4  2016 Georgia                 48.3              44.4            45.5
##  5  2016 Maryland                27.4              59.9            29.0
##  6  2016 Michigan                42.5              45.7            36.9
##  7  2016 Minnesota               38.1              47.0            39.0
##  8  2016 Missouri                50.3              38.2            44.1
##  9  2016 Montana                 50.7              32.7            54.0
## 10  2016 Nebraska                51.4              33.6            48.6
## # ℹ 223 more rows
## # ℹ 43 more variables: mean_pollav_DEM <dbl>, D_pv <dbl>, R_pv <dbl>,
## #   D_pv2p <dbl>, R_pv2p <dbl>, votes_D <dbl>, votes_R <dbl>,
## #   total_votes <dbl>, two_party_votes <dbl>, D_pv_lag1 <dbl>, R_pv_lag1 <dbl>,
## #   D_pv2p_lag1 <dbl>, R_pv2p_lag1 <dbl>, D_pv_lag2 <dbl>, R_pv_lag2 <dbl>,
## #   D_pv2p_lag2 <dbl>, R_pv2p_lag2 <dbl>, party <chr>, winner <lgl>,
## #   candidate <chr>, pv <dbl>, pv2p <dbl>, incumbent <lgl>, …
…
