…
```
## Rows: 387 Columns: 14
## ── Column specification ────────────────────────────────────────────────────────
## Delimiter: ","
## dbl (14): year, quarter, GDP, GDP_growth_quarterly, RDPI, RDPI_growth_quarte...
## 
## ℹ Use `spec()` to retrieve the full column specification for this data.
## ℹ Specify the column types or set `show_col_types = FALSE` to quiet this message.
```

```
## # A tibble: 24 × 60
##     year quarter   GDP GDP_growth_quarterly  RDPI RDPI_growth_quarterly   CPI
##    <dbl>   <dbl> <dbl>                <dbl> <dbl>                 <dbl> <dbl>
##  1  1976       2 1852.                  3   4675.                   2.3  56.4
##  2  1976       2 1852.                  3   4675.                   2.3  56.4
##  3  1980       2 2797.                 -8   5144.                  -3.5  81.7
##  4  1980       2 2797.                 -8   5144.                  -3.5  81.7
##  5  1984       2 4010.                  7.1 5981.                   6.6 104. 
##  6  1984       2 4010.                  7.1 5981.                   6.6 104. 
##  7  1988       2 5190.                  5.4 6847.                   4.7 118. 
##  8  1988       2 5190.                  5.4 6847.                   4.7 118. 
##  9  1992       2 6471.                  4.4 7569.                   3.8 140. 
## 10  1992       2 6471.                  4.4 7569.                   3.8 140. 
## # ℹ 14 more rows
## # ℹ 53 more variables: unemployment <dbl>, sp500_open <dbl>, sp500_high <dbl>,
## #   sp500_low <dbl>, sp500_close <dbl>, sp500_adj_close <dbl>,
## #   sp500_volume <dbl>, party <chr>, poll_weeks_left_0 <dbl>,
## #   poll_weeks_left_1 <dbl>, poll_weeks_left_2 <dbl>, poll_weeks_left_3 <dbl>,
## #   poll_weeks_left_4 <dbl>, poll_weeks_left_5 <dbl>, poll_weeks_left_6 <dbl>,
## #   poll_weeks_left_7 <dbl>, poll_weeks_left_8 <dbl>, …
```
…
