…
d_state_unemployment$year <- as.numeric(d_state_unemployment$year)


d_state_unemployment
```

```
## # A tibble: 572 × 4
##    state   month  year unemployment
##    <chr>   <chr> <dbl>        <dbl>
##  1 Alabama Sep    2014          6.5
##  2 Alabama Sep    2015          6.1
##  3 Alabama Sep    2016          5.9
##  4 Alabama Sep    2017          4.1
##  5 Alabama Sep    2018          3.9
##  6 Alabama Sep    2019          3  
##  7 Alabama Sep    2020          5.9
##  8 Alabama Sep    2021          3  
##  9 Alabama Sep    2022          2.5
## 10 Alabama Sep    2023          2.7
## # ℹ 562 more rows
```

``` r
#Process gdp growth for model's need 

d_state_gdp <- d_state_gdp |>
  select(year, state, q2_gdp_growth)

d_state_gdp
```

```
## # A tibble: 969 × 3
##     year state                q2_gdp_growth
##    <dbl> <chr>                        <dbl>
##  1  2005 Alabama                         NA
##  2  2005 Alaska                          NA
##  3  2005 Arizona                         NA
##  4  2005 Arkansas                        NA
##  5  2005 California                      NA
##  6  2005 Colorado                        NA
##  7  2005 Connecticut                     NA
##  8  2005 Delaware                        NA
##  9  2005 District of Columbia            NA
## 10  2005 Florida                         NA
## # ℹ 959 more rows
```
…
    # Create 'age_30_to_44' by summing the relevant age groups
    age_30_to_44 = age_30_to_34 + age_35_to_44,
    
    # Create 'age_55_to_64' by summing the relevant age groups
    age_55_to_64 = age_55_to_59 + age_60_to_61 + age_62_to_64,
    
    # Create 'age_75plus' by summing ages 75 and older
    age_75plus = age_75_to_84 + age_85_and_over
  )

d_state_demog
```

```
## # A tibble: 663 × 49
##     ...1  year state                total_pop white black american_indian asian_pacific_islander other_race
##    <dbl> <dbl> <chr>                    <dbl> <dbl> <dbl>           <dbl>                  <dbl>      <dbl>
##  1     1  1972 Alabama               3534110.  73.6 26.1           0.105                   0.158         NA
##  2     2  1972 Alaska                 320676.  78.6  3.06          7.54                   10.6           NA
##  3     3  1972 Arizona               1960363   89.1  2.96          5.46                    0.939         NA
##  4     4  1972 Arkansas              1995923   81.7 17.9           0.195                   0.185         NA
##  5     5  1972 California           20696088.  86.6  7.15          0.561                   3.92          NA
##  6     6  1972 Colorado              2343800   94.5  3.11          0.466                   0.950         NA
##  7     7  1972 Connecticut           3046882.  92.9  6.18          0.0901                  0.475         NA
##  8     8  1972 Delaware               557351.  84.5 14.7           0.143                   0.552         NA
##  9     9  1972 District of Columbia   732875.  27.6 70.9           0.133                   1.12          NA
## 10    10  1972 Florida               7380819.  84.2 15.0           0.130                   0.385         NA
## # ℹ 653 more rows
## # ℹ 40 more variables: two_or_more_races <dbl>, hispanic_white <dbl>, hispanic_black <dbl>,
## #   hispanic_american_indian <dbl>, hispanic_asian_pacific_islander <dbl>, hispanic_other_race <dbl>,
## #   hispanic_two_or_more_races <dbl>, not_hispanic_white <dbl>, not_hispanic_black <dbl>,
## #   not_hispanic_american_indian <dbl>, not_hispanic_asian_pacific_islander <dbl>,
## #   not_hispanic_other_race <dbl>, not_hispanic_two_or_more_races <dbl>, under_5 <dbl>, age_5_to_9 <dbl>,
## #   age_10_to_14 <dbl>, age_15_to_17 <dbl>, age_18_to_19 <dbl>, age_20 <dbl>, age_21 <dbl>, …
```
…
d_turnout
```

```
## # A tibble: 1,144 × 15
##     year state       vep_turnout vep_highest_office vap_highest_office total_ballots highest_office_ballots
##    <dbl> <chr>       <chr>       <chr>              <chr>                      <dbl>                  <dbl>
##  1  2022 United Sta… 46.20%      <NA>               <NA>                   112030874                     NA
##  2  2022 Alabama     37.30%      <NA>               <NA>                     1424087                     NA
##  3  2022 Alaska      50.20%      <NA>               <NA>                      267047                     NA
##  4  2022 Arizona     49.30%      <NA>               <NA>                     2592313                     NA
##  5  2022 Arkansas    41.50%      <NA>               <NA>                      914227                     NA
##  6  2022 California  42.90%      <NA>               <NA>                    11146610                     NA
##  7  2022 Colorado    58.30%      <NA>               <NA>                     2540666                     NA
##  8  2022 Connecticut 48.60%      <NA>               <NA>                     1297811                     NA
##  9  2022 Delaware    42.80%      <NA>               <NA>                      325632                     NA
## 10  2022 District o… 40.60%      <NA>               <NA>                      205774                     NA
## # ℹ 1,134 more rows
## # ℹ 8 more variables: vep <dbl>, vap <dbl>, noncitizen <chr>, prison <dbl>, probation <dbl>, parole <dbl>,
## #   total_ineligible <dbl>, overseas_eligible <dbl>
```

``` r
# Sequester states for which we have polling data for 2024.
states.2024 <- unique(d$state[d$year == 2024])
states.2024 <- states.2024[-which(states.2024 == "Nebraska Cd 2")]
d <- d |>
  filter(state %in% states.2024)

d
```

```
## # A tibble: 303 × 95
##     year state       latest_pollav_REP latest_pollav_DEM mean_pollav_REP mean_pollav_DEM  D_pv  R_pv D_pv2p
##    <dbl> <chr>                   <dbl>             <dbl>           <dbl>           <dbl> <dbl> <dbl>  <dbl>
##  1  2016 Arizona                  45.6              42.9            41.4            40.7  45.1  48.7   48.1
##  2  2016 California               32.8              54.9            31.7            54.2  61.7  31.6   66.1
##  3  2016 Colorado                 40.8              43.6            41.4            42.0  48.2  43.3   52.7
##  4  2016 Florida                  45.5              46.4            42.6            45.6  47.8  49.0   49.4
##  5  2016 Georgia                  48.3              44.4            45.5            42.0  45.6  50.8   47.3
##  6  2016 Indiana                  50.3              37.3            47.4            38.3  37.8  56.9   39.9
##  7  2016 Maryland                 27.4              59.9            29.0            62.2  60.3  33.9   64.0
##  8  2016 Massachuse…              28.0              55.7            30.1            56.1  59.1  32.3   64.7
##  9  2016 Michigan                 42.5              45.7            36.9            45.4  47.3  47.5   49.9
## 10  2016 Minnesota                38.1              47.0            39.0            45.5  46.4  44.9   50.8
## # ℹ 293 more rows
## # ℹ 86 more variables: R_pv2p <dbl>, votes_D <dbl>, votes_R <dbl>, total_votes <dbl>,
## #   two_party_votes <dbl>, D_pv_lag1 <dbl>, R_pv_lag1 <dbl>, D_pv2p_lag1 <dbl>, R_pv2p_lag1 <dbl>,
## #   D_pv_lag2 <dbl>, R_pv_lag2 <dbl>, D_pv2p_lag2 <dbl>, R_pv2p_lag2 <dbl>, party <chr>, winner <lgl>,
## #   candidate <chr>, pv <dbl>, pv2p <dbl>, incumbent <lgl>, incumbent_party <lgl>, prev_admin <lgl>,
## #   deminc <dbl>, juneapp <dbl>, vep_turnout <chr>, vep_highest_office <chr>, vap_highest_office <chr>,
## #   total_ballots <dbl>, highest_office_ballots <dbl>, vep <dbl>, vap <dbl>, noncitizen <chr>, …
```

``` r
# Separate into training and testing for simple poll prediction model. 
d.train <- d |> filter(year < 2024) |> select(year, state, D_pv2p, latest_pollav_DEM, D_pv2p_lag1, D_pv2p_lag2, q2_gdp_growth, white, black, american_indian, asian_pacific_islander, unemployment, less_than_college, bachelors, graduate, hispanic, age_18_to_29, age_30_to_44, age_45_to_54, age_55_to_64, age_65_to_74, age_75plus) |> drop_na() |> distinct(state, year, .keep_all = TRUE)

d.train
```

```
## # A tibble: 52 × 22
##     year state   D_pv2p latest_pollav_DEM D_pv2p_lag1 D_pv2p_lag2 q2_gdp_growth white black american_indian
##    <dbl> <chr>    <dbl>             <dbl>       <dbl>       <dbl>         <dbl> <dbl> <dbl>           <dbl>
##  1  2016 Arizona   48.1              42.9        45.4        45.7          2.67  65.5  4.47           4.54 
##  2  2016 Califo…   66.1              54.9        61.9        62.3          1.88  47.8  5.86           1.35 
##  3  2016 Colora…   52.7              43.6        52.7        54.6          1.57  75.0  4.04           1.22 
##  4  2016 Florida   49.4              46.4        50.4        51.4          3.19  64.6 15.4            0.416
##  5  2016 Georgia   47.3              44.4        46.0        47.4          3.21  55.0 30.8            0.416
##  6  2016 Indiana   39.9              37.3        44.8        50.5          1.20  80.1  9.38           0.345
##  7  2016 Maryla…   64.0              59.9        63.3        62.9          3.56  52.5 29.5            0.451
##  8  2016 Massac…   64.7              55.7        61.8        63.2          1.15  74.0  6.87           0.320
##  9  2016 Michig…   49.9              45.7        54.8        58.4          2.18  75.9 13.9            0.616
## 10  2016 Minnes…   50.8              47.0        53.9        55.2          1.35  80.6  6.26           1.18 
## # ℹ 42 more rows
## # ℹ 12 more variables: asian_pacific_islander <dbl>, unemployment <dbl>, less_than_college <dbl>,
## #   bachelors <dbl>, graduate <dbl>, hispanic <dbl>, age_18_to_29 <dbl>, age_30_to_44 <dbl>,
## #   age_45_to_54 <dbl>, age_55_to_64 <dbl>, age_65_to_74 <dbl>, age_75plus <dbl>
```

``` r
d.test <- d |> filter(year == 2024) |> select(year, state, D_pv2p, latest_pollav_DEM, D_pv2p_lag1, D_pv2p_lag2, q2_gdp_growth, white, black, american_indian, asian_pacific_islander, unemployment, less_than_college, bachelors, graduate, hispanic, age_18_to_29, age_30_to_44, age_45_to_54, age_55_to_64, age_75plus) |> distinct(state, year, .keep_all = TRUE)

d.test
```

```
## # A tibble: 27 × 21
##     year state   D_pv2p latest_pollav_DEM D_pv2p_lag1 D_pv2p_lag2 q2_gdp_growth white black american_indian
##    <dbl> <chr>    <dbl>             <dbl>       <dbl>       <dbl>         <dbl> <dbl> <dbl>           <dbl>
##  1  2024 Arizona     NA              46.4          NA          NA           5.9    NA    NA              NA
##  2  2024 Califo…     NA              58.7          NA          NA           5.4    NA    NA              NA
##  3  2024 Colora…     NA              52.8          NA          NA           5.8    NA    NA              NA
##  4  2024 Florida     NA              44.5          NA          NA           6.1    NA    NA              NA
##  5  2024 Georgia     NA              47.0          NA          NA           6      NA    NA              NA
##  6  2024 Indiana     NA              39.2          NA          NA           3.9    NA    NA              NA
##  7  2024 Maine …     NA              43.7          NA          NA          NA      NA    NA              NA
##  8  2024 Maryla…     NA              61.3          NA          NA           5.1    NA    NA              NA
##  9  2024 Massac…     NA              59.7          NA          NA           4.7    NA    NA              NA
## 10  2024 Michig…     NA              47.8          NA          NA           6.5    NA    NA              NA
## # ℹ 17 more rows
## # ℹ 11 more variables: asian_pacific_islander <dbl>, unemployment <dbl>, less_than_college <dbl>,
## #   bachelors <dbl>, graduate <dbl>, hispanic <dbl>, age_18_to_29 <dbl>, age_30_to_44 <dbl>,
## #   age_45_to_54 <dbl>, age_55_to_64 <dbl>, age_75plus <dbl>
```
…
t
```

```
## # A tibble: 27 × 21
## # Groups:   state [27]
##    state          year D_pv2p D_pv2p_lag1 R_pv2p_lag1 D_pv2p_lag2 R_pv2p_lag2 white black american_indian
##    <chr>         <dbl>  <dbl>       <dbl>       <dbl>       <dbl>       <dbl> <dbl> <dbl>           <dbl>
##  1 Arizona        2024     NA        50.2        49.8        48.1        51.9  60.4  4.74           4.47 
##  2 California     2024     NA        64.9        35.1        66.1        33.9  41.2  5.66           1.60 
##  3 Colorado       2024     NA        56.9        43.1        52.7        47.3  70.7  4.07           1.28 
##  4 Florida        2024     NA        48.3        51.7        49.4        50.6  57.7 15.1            0.440
##  5 Georgia        2024     NA        50.1        49.9        47.3        52.7  51.9 31.0            0.473
##  6 Indiana        2024     NA        41.8        58.2        39.9        60.1  77.2  9.56           0.384
##  7 Maine Cd 2     2024     NA        NA          NA          NA          NA    NA   NA             NA    
##  8 Maryland       2024     NA        67.0        33.0        64.0        36.0  48.7 29.5            0.516
##  9 Massachusetts  2024     NA        67.1        32.9        64.7        35.3  69.6  7.03           0.342
## 10 Michigan       2024     NA        51.4        48.6        49.9        50.1  73.9 13.7            0.608
## # ℹ 17 more rows
## # ℹ 11 more variables: asian_pacific_islander <dbl>, less_than_college <dbl>, bachelors <dbl>,
## #   graduate <dbl>, hispanic <dbl>, age_18_to_29 <dbl>, age_30_to_44 <dbl>, age_45_to_54 <dbl>,
## #   age_55_to_64 <dbl>, age_65_to_74 <dbl>, age_75plus <dbl>
```
…
d.test
```

```
## # A tibble: 27 × 24
##     year state   D_pv2p latest_pollav_DEM D_pv2p_lag1 D_pv2p_lag2 q2_gdp_growth white black american_indian
##    <dbl> <chr>    <dbl>             <dbl>       <dbl>       <dbl>         <dbl> <dbl> <dbl>           <dbl>
##  1  2024 Arizona     NA              46.4        50.2        48.1           5.9  60.4  4.74           4.47 
##  2  2024 Califo…     NA              58.7        64.9        66.1           5.4  41.2  5.66           1.60 
##  3  2024 Colora…     NA              52.8        56.9        52.7           5.8  70.7  4.07           1.28 
##  4  2024 Florida     NA              44.5        48.3        49.4           6.1  57.7 15.1            0.440
##  5  2024 Georgia     NA              47.0        50.1        47.3           6    51.9 31.0            0.473
##  6  2024 Indiana     NA              39.2        41.8        39.9           3.9  77.2  9.56           0.384
##  7  2024 Maine …     NA              43.7        NA          NA            NA    NA   NA             NA    
##  8  2024 Maryla…     NA              61.3        67.0        64.0           5.1  48.7 29.5            0.516
##  9  2024 Massac…     NA              59.7        67.1        64.7           4.7  69.6  7.03           0.342
## 10  2024 Michig…     NA              47.8        51.4        49.9           6.5  73.9 13.7            0.608
## # ℹ 17 more rows
## # ℹ 14 more variables: asian_pacific_islander <dbl>, unemployment <dbl>, less_than_college <dbl>,
## #   bachelors <dbl>, graduate <dbl>, hispanic <dbl>, age_18_to_29 <dbl>, age_30_to_44 <dbl>,
## #   age_45_to_54 <dbl>, age_55_to_64 <dbl>, age_75plus <dbl>, R_pv2p_lag1 <dbl>, R_pv2p_lag2 <dbl>,
## #   age_65_to_74 <dbl>
```
…
