…
```
## Warning: There was 1 warning in `mutate()`.
## ℹ In argument: `across(-state, ~as.numeric(gsub("\\(NA\\)", "", .)))`.
## Caused by warning:
## ! NAs introduced by coercion
```

``` r
personal_dis_income
```

```
## # A tibble: 800 × 4
##    GeoFips state    year disposable_income
##      <dbl> <chr>   <dbl>             <dbl>
##  1    1000 Alabama  2008             30060
##  2    1000 Alabama  2009             30104
##  3    1000 Alabama  2010             31091
##  4    1000 Alabama  2011             31760
##  5    1000 Alabama  2012             32500
##  6    1000 Alabama  2013             32399
##  7    1000 Alabama  2014             33351
##  8    1000 Alabama  2015             34538
##  9    1000 Alabama  2016             34919
## 10    1000 Alabama  2017             36173
## # ℹ 790 more rows
```
…
# Sequester states for which we have polling data for 2024.
states.2024 <- unique(d$state[d$year == 2024])
states.2024 <- states.2024[-which(states.2024 == "Nebraska Cd 2")]
d <- d |>
  filter(state %in% states.2024)

d
```

```
## # A tibble: 221 × 45
##     year state      latest_pollav_REP latest_pollav_DEM mean_pollav_REP
##    <dbl> <chr>                  <dbl>             <dbl>           <dbl>
##  1  2016 Arizona                 45.6              42.9            41.4
##  2  2016 California              32.8              54.9            31.7
##  3  2016 Florida                 45.5              46.4            42.6
##  4  2016 Georgia                 48.3              44.4            45.5
##  5  2016 Maryland                27.4              59.9            29.0
##  6  2016 Michigan                42.5              45.7            36.9
##  7  2016 Minnesota               38.1              47.0            39.0
##  8  2016 Missouri                50.3              38.2            44.1
##  9  2016 Montana                 50.7              32.7            54.0
## 10  2016 Nevada                  44.2              44.9            44.4
## # ℹ 211 more rows
## # ℹ 40 more variables: mean_pollav_DEM <dbl>, D_pv <dbl>, R_pv <dbl>,
## #   D_pv2p <dbl>, R_pv2p <dbl>, D_pv_lag1 <dbl>, R_pv_lag1 <dbl>,
## #   D_pv2p_lag1 <dbl>, R_pv2p_lag1 <dbl>, D_pv_lag2 <dbl>, R_pv_lag2 <dbl>,
## #   D_pv2p_lag2 <dbl>, R_pv2p_lag2 <dbl>, margin <dbl>, winner.x <chr>,
## #   party <chr>, winner.y <lgl>, candidate <chr>, pv <dbl>, pv2p <dbl>,
## #   incumbent <lgl>, incumbent_party <lgl>, prev_admin <lgl>, deminc <dbl>, …
```
…
